What Drives Drug Prices?
…
new_drug_price = drug_price %>% 
  group_by(trade_name, drug_type, otc, pricing_unit, year) %>% 
  summarize(avg_price = mean(unit_price, na.rm = TRUE))

new_drug_price

## # A tibble: 6,023 x 6
## # Groups:   trade_name, drug_type, otc, pricing_unit [?]
##    trade_name drug_type    otc pricing_unit  year avg_price
##         <chr>     <chr> <fctr>        <chr> <chr>     <dbl>
##  1                    G    Yes           EA  2013 0.2434375
##  2                    G    Yes           EA  2014 0.2430778
##  3                    G    Yes           EA  2015 0.2556137
##  4                    G    Yes           EA  2016 0.2538263
##  5                    G    Yes           EA  2017 0.2339103
##  6                    G    Yes           GM  2016 0.3077704
##  7                    G    Yes           GM  2017 0.3087167
##  8   Abacavir         G     No           EA  2013 5.3170850
##  9   Abacavir         G     No           EA  2014 4.7696039
## 10   Abacavir         G     No           EA  2015 3.6822746
## # ... with 6,013 more rows
…
rm(NIH_funding)

final_NIH_funding

## # A tibble: 1,692 x 5
##                                                                 disease
##  *                                                                <chr>
##  1                                        Acquired Cognitive Impairment
##  2                                  Acute Respiratory Distress Syndrome
##  3                                           Adolescent Sexual Activity
##  4                                                Agent Orange & Dioxin
##  5                                                                Aging
##  6                                  Alcoholism, Alcohol Use and Health 
##  7                                                   Allergic Rhinitis 
##  8                                        Amyotrophic Lateral Sclerosis
##  9                                                  Alzheimer's Disease
## 10 Alzheimer's Disease including Alzheimer's Disease Related Dementias 
## # ... with 1,682 more rows, and 4 more variables: prevalence <dbl>,
## #   US_mortality_2015 <dbl>, year <chr>, funding <dbl>
…
patents$pediatric_exclusivity_granted[is.na(patents$pediatric_exclusivity_granted)] = "no"
patents$drugsub[is.na(patents$drugsub)] = "no"
patents$drugprod[is.na(patents$drugprod)] = "no"
patents$delist[is.na(patents$delist)] = "no"

patents = patents %>%
  mutate(pediatric_exclusivity_granted = factor(pediatric_exclusivity_granted, levels = c("no", "PED"), labels = c("No", "Yes"))) %>%
  mutate(drug_substance_flag = factor(drugsub, levels = c("no", "Y"), labels = c("no", "yes"))) %>%
  mutate(drug_prod_flag = factor(drugprod, levels = c("no", "Y"), labels = c("no", "yes"))) %>%
  mutate(patent_delisted = factor(delist, levels = c("no", "Y"), labels = c("no", "yes"))) %>%
  select(-drugsub, -drugprod, -patexpstr) %>%
  rename(pat_use_code = patuse)
patents

## # A tibble: 13,858 x 13
##    drug_type appl_no product_no patent_num pediatric_exclusivity_granted
##        <chr>   <int>      <int>      <chr>                        <fctr>
##  1         B   22425          1    5223510                            No
##  2         B   22425          1    5223510                            No
##  3         B   22307          1    5288726                            No
##  4         B   22307          1    5288726                           Yes
##  5         B   21462          1    5344932                            No
##  6         B   21462          1    5344932                           Yes
##  7         B   22088          1    5362718                            No
##  8         B   22088          1    5362718                           Yes
##  9         B   21060          1    5364842                            No
## 10         B   21060          1    5364842                            No
## # ... with 13,848 more rows, and 8 more variables:
## #   month_pat_expires <chr>, day_pat_expires <chr>,
## #   year_pat_expires <chr>, pat_use_code <chr>, delist <chr>,
## #   drug_substance_flag <fctr>, drug_prod_flag <fctr>,
## #   patent_delisted <fctr>
…
products = read_csv("./data/products.csv")
products = products %>%
  rename(drug_type = appl_type,
         otc = type) %>% 
  mutate(drug_type = recode(drug_type, "A" = "G", "N" = "B"),
         otc = recode(otc, "OTC" = "yes", "RX" = "no", "DISCN" = "no")) %>%
  separate(appdate, into = c("approval_month", "approval_day", "approval_year"), sep = "/") %>%
  #separate(doseform, into = c("form", "release_type"), sep = ",")
  mutate(otc = factor(otc)) %>%
  mutate(ref_listed_drug = factor(rld)) %>%
  mutate(ref_std = factor(rs)) %>%
  select(-appdatestr, -rld, -rs, -dfroute)
products

## # A tibble: 34,209 x 18
##                                           ingredient doseform route
##                                                <chr>    <chr> <chr>
##  1                                  ABACAVIR SULFATE SOLUTION  ORAL
##  2                                  ABACAVIR SULFATE SOLUTION  ORAL
##  3                                  ABACAVIR SULFATE   TABLET  ORAL
##  4                                  ABACAVIR SULFATE   TABLET  ORAL
##  5                                  ABACAVIR SULFATE   TABLET  ORAL
##  6                                  ABACAVIR SULFATE   TABLET  ORAL
##  7                                  ABACAVIR SULFATE   TABLET  ORAL
##  8                                  ABACAVIR SULFATE   TABLET  ORAL
##  9 ABACAVIR SULFATE; DOLUTEGRAVIR SODIUM; LAMIVUDINE   TABLET  ORAL
## 10                      ABACAVIR SULFATE; LAMIVUDINE   TABLET  ORAL
## # ... with 34,199 more rows, and 15 more variables: trade_name <chr>,
## #   applicant <chr>, strength <chr>, drug_type <chr>, appl_no <int>,
## #   product_no <int>, tecodestr <chr>, tecode <int>, approval_month <chr>,
## #   approval_day <chr>, approval_year <chr>, otc <fctr>, appfull <chr>,
## #   ref_listed_drug <fctr>, ref_std <fctr>

Dataset 5: Exclusivity

We load and tidy the exclusivity dataset

exclusivity = read_csv("./data/exclusivity.csv") %>%
  clean_names() %>%
  rename(drug_type = appl_type) %>% 
  mutate(drug_type = recode(drug_type, "A" = "G", "N" = "B")) %>% 
  separate(excldate, into = c("month_excl_expires", "date_excl_expires", "year_excl_expires"))
exclusivity

## # A tibble: 1,806 x 8
##    drug_type appl_no product_no exclcode  excldatestr month_excl_expires
##  *     <chr>   <int>      <int>    <chr>        <chr>              <chr>
##  1         G   65488          1       PC Mar 26, 2018                  3
##  2         G   65488          2       PC Mar 26, 2018                  3
##  3         G   78276          1       PC Apr 24, 2017                  4
##  4         G   78276          2       PC Apr 24, 2017                  4
##  5         G   78276          3       PC Apr 24, 2017                  4
##  6         G   78340          1       PC Jul 30, 2016                  7
##  7         G   78340          2       PC Jul 30, 2016                  7
##  8         G   78560          1       PC Jun 10, 2017                  6
##  9         G   78827          1       PC Apr 24, 2017                  4
## 10         G   78827          2       PC Apr 24, 2017                  4
## # ... with 1,796 more rows, and 2 more variables: date_excl_expires <chr>,
## #   year_excl_expires <chr>
…
exclcode: Code to designate exclusivity granted by the FDA to a drug product. Format is nnnnnnnnnn.

excldatestr: The date the exclusivity expires. Format is MMM DD, YYYY.

Dataset 6: Ingredient

We load the ingredient dataset.

ingredient = read_csv("./data/ingredient.csv") %>%
  clean_names() %>%
  select(singnum, singredient, everything())
ingredient

## # A tibble: 3,371 x 3
##    singnum         singredient
##      <int>               <chr>
##  1       1    ABACAVIR SULFATE
##  2       1    ABACAVIR SULFATE
##  3       2 DOLUTEGRAVIR SODIUM
##  4       3          LAMIVUDINE
##  5       1    ABACAVIR SULFATE
##  6       2          LAMIVUDINE
##  7       1    ABACAVIR SULFATE
##  8       2          LAMIVUDINE
##  9       3          ZIDOVUDINE
## 10       1       ABALOPARATIDE
## # ... with 3,361 more rows, and 1 more variables: ingredient <chr>
…
  drug_disease_joined
}

drug_disease_data = map_df(urls, get_drug_disease) %>% 
  mutate(disease = str_to_title(disease),
         drug = str_to_title(drug)) %>% 
  rename(trade_name = drug) %>%
  mutate(trade_name = trimws(trade_name, which = c("both"))) %>% 
  separate(trade_name, into = c("trade_name", "remove"), sep = " ") %>% 
  select(-remove)

drug_disease_data

## # A tibble: 1,883 x 2
##     trade_name disease
##  *       <chr>   <chr>
##  1       Avita    Acne
##  2  Benzamycin    Acne
##  3 Clindamycin    Acne
##  4 Clindamycin    Acne
##  5    Differin    Acne
##  6   Estrostep    Acne
##  7     Finevin    Acne
##  8      Klaron    Acne
##  9       Ortho    Acne
## 10     Retin-A    Acne
## # ... with 1,873 more rows
…
Join Datasets

#A: join datasets by ingredient for ingredient and products (left join)
#products = longer dataset + ingredient
product_ingredient = left_join(products, ingredient, by = "ingredient")
product_ingredient

## # A tibble: 40,443 x 20
##                                           ingredient doseform route
##                                                <chr>    <chr> <chr>
##  1                                  ABACAVIR SULFATE SOLUTION  ORAL
##  2                                  ABACAVIR SULFATE SOLUTION  ORAL
##  3                                  ABACAVIR SULFATE   TABLET  ORAL
##  4                                  ABACAVIR SULFATE   TABLET  ORAL
##  5                                  ABACAVIR SULFATE   TABLET  ORAL
##  6                                  ABACAVIR SULFATE   TABLET  ORAL
##  7                                  ABACAVIR SULFATE   TABLET  ORAL
##  8                                  ABACAVIR SULFATE   TABLET  ORAL
##  9 ABACAVIR SULFATE; DOLUTEGRAVIR SODIUM; LAMIVUDINE   TABLET  ORAL
## 10 ABACAVIR SULFATE; DOLUTEGRAVIR SODIUM; LAMIVUDINE   TABLET  ORAL
## # ... with 40,433 more rows, and 17 more variables: trade_name <chr>,
## #   applicant <chr>, strength <chr>, drug_type <chr>, appl_no <int>,
## #   product_no <int>, tecodestr <chr>, tecode <int>, approval_month <chr>,
## #   approval_day <chr>, approval_year <chr>, otc <fctr>, appfull <chr>,
## #   ref_listed_drug <fctr>, ref_std <fctr>, singnum <int>,
## #   singredient <chr>

#B: exclusivity and patents left join (more~less)
patent_exclusivity = left_join(patents, exclusivity, by = c("appl_no", "product_no", "drug_type"))
patent_exclusivity

## # A tibble: 22,379 x 18
##    drug_type appl_no product_no patent_num pediatric_exclusivity_granted
##        <chr>   <int>      <int>      <chr>                        <fctr>
##  1         B   22425          1    5223510                            No
##  2         B   22425          1    5223510                            No
##  3         B   22307          1    5288726                            No
##  4         B   22307          1    5288726                            No
##  5         B   22307          1    5288726                           Yes
##  6         B   22307          1    5288726                           Yes
##  7         B   21462          1    5344932                            No
##  8         B   21462          1    5344932                           Yes
##  9         B   22088          1    5362718                            No
## 10         B   22088          1    5362718                           Yes
## # ... with 22,369 more rows, and 13 more variables:
## #   month_pat_expires <chr>, day_pat_expires <chr>,
## #   year_pat_expires <chr>, pat_use_code <chr>, delist <chr>,
## #   drug_substance_flag <fctr>, drug_prod_flag <fctr>,
## #   patent_delisted <fctr>, exclcode <chr>, excldatestr <chr>,
## #   month_excl_expires <chr>, date_excl_expires <chr>,
## #   year_excl_expires <chr>
…
orange_book = orange_book %>%
  mutate(ingredient = str_to_title(ingredient),
         doseform = str_to_title(doseform),
         route = str_to_title(route),
         trade_name = str_to_title(trade_name),
         applicant = str_to_title(applicant),
         otc = str_to_title(otc),
         appfull = str_to_title(appfull),
         singredient = str_to_title(singredient),
         strength = str_to_title(strength))
orange_book

## # A tibble: 64,423 x 35
##          ingredient doseform route       trade_name            applicant
##               <chr>    <chr> <chr>            <chr>                <chr>
##  1 Abacavir Sulfate Solution  Oral Abacavir Sulfate  Hetero Labs Ltd Iii
##  2 Abacavir Sulfate Solution  Oral           Ziagen        Viiv Hlthcare
##  3 Abacavir Sulfate Solution  Oral           Ziagen        Viiv Hlthcare
##  4 Abacavir Sulfate Solution  Oral           Ziagen        Viiv Hlthcare
##  5 Abacavir Sulfate Solution  Oral           Ziagen        Viiv Hlthcare
##  6 Abacavir Sulfate   Tablet  Oral Abacavir Sulfate           Apotex Inc
##  7 Abacavir Sulfate   Tablet  Oral Abacavir Sulfate Aurobindo Pharma Ltd
##  8 Abacavir Sulfate   Tablet  Oral Abacavir Sulfate  Hetero Labs Ltd Iii
##  9 Abacavir Sulfate   Tablet  Oral Abacavir Sulfate     Mylan Pharms Inc
## 10 Abacavir Sulfate   Tablet  Oral Abacavir Sulfate       Strides Pharma
## # ... with 64,413 more rows, and 30 more variables: strength <chr>,
## #   drug_type <chr>, appl_no <int>, product_no <int>, tecodestr <chr>,
## #   tecode <int>, approval_month <chr>, approval_day <chr>,
## #   approval_year <chr>, otc <chr>, appfull <chr>, ref_listed_drug <fctr>,
## #   ref_std <fctr>, singnum <int>, singredient <chr>, patent_num <chr>,
## #   pediatric_exclusivity_granted <fctr>, month_pat_expires <chr>,
## #   day_pat_expires <chr>, year_pat_expires <chr>, pat_use_code <chr>,
## #   delist <chr>, drug_substance_flag <fctr>, drug_prod_flag <fctr>,
## #   patent_delisted <fctr>, exclcode <chr>, excldatestr <chr>,
…
